"id","phone","kepcoCode","lat","lng","siteId","telecom"
"GA0006","010-2222-2222","0000",35.139605247153824,126.79385275719461,"01","KT"
"GA0251","010-6760-2011","0318845201",35.16543619260481,126.80573434874668,"01","KT"
"GA0275","010-9026-3780","0315440064",35.15401146648251,126.81317615492,"01","SKT"
"GA0273","010-3284-7368","0315441214",35.15335076368999,126.81027153385428,"01","KT"
"GA0272","010-2661-2150","0338710489",35.15291578046437,126.8087887564167,"01","KT"
"GA0278","010-3073-5912","0318861736",35.16543619260481,126.80573434874668,"01","SKT"
"GA0279","010-6607-7724","0315421316",35.15509173316781,126.81463556215725,"01","LGU+"
"GA0253","010-2908-2958","0315421968",35.15509173316781,126.81463556215725,"01","KT"
"GA0261","010-8689-8010","0315426801",35.15766607149441,126.8146736242821,"01","LGU+"
"GA0277","010-5833-3694","0318861718",35.16543619260481,126.80573434874668,"01","LGU+"
"GA0262","010-3793-8639","0318859482",35.16543619260481,126.80573434874668,"01","SKT"
"GA0264","010-4185-5679","0318854496",35.165884549769665,126.80653676224219,"01","KT"
"GA0260","010-5615-7782","0318859874",35.16543619260481,126.80573434874668,"01","KT"
"GA0258","010-8615-4046","0318855912",35.165884549769665,126.80653676224219,"01","SKT"
"GA0265","010-3383-7965","0315439780",35.15401146648251,126.81317615492,"01","KT"
"GA0268","010-6547-0632","0318854584",35.165884549769665,126.80653676224219,"01","SKT"
"GA0256","010-6302-2610","0315421049",35.15509173316781,126.81463556215725,"01","LGU+"
"GA0280","010-4379-4311","0331673540",35.165884549769665,126.80653676224219,"01","KT"
"GA0266","010-5637-7742","0318855574",35.165884549769665,126.80653676224219,"01","LGU+"
"GA0274","010-4617-4556","0318844553",35.16594778101846,126.80549603960654,"01","KT"
"GA0276","010-8602-9297","0318858713",35.16543619260481,126.80573434874668,"01","KT"
"GA0283","010-4641-2070","0318823216",35.15450990314559,126.8091186658792,"01","SKT"
"GA0284","010-3410-9431","0333275343",35.152383705000986,126.80976016345758,"01","KT"
"GA0285","010-2431-8901","0318841214",35.15810971345645,126.81012877947362,"01","SKT"
"GA0290","010-3666-1825","0315439833",35.15401146648251,126.81317615492,"01","SKT"
"GA0292","010-7634-5306","0331702572",35.15703054168731,126.80939813625065,"01","LGU+"
"GA0294","010-7762-3735","0332167275",35.15405019713162,126.80796956904943,"01","SKT"
"GA0300","010-2647-6052","0318856378",35.165884549769665,126.80653676224219,"01","SKT"
"GA0293","010-3075-1119","0318840983",35.157595072596024,126.81072703628173,"01","KT"
"GA0297","010-2786-0098","0315441330",35.15337606350917,126.81031098447231,"01","LGU+"
"GA0307","010-3855-0879","0318838512",35.15401360409583,126.80991440816092,"01","SKT"
"GA0302","010-5643-2587","0318823458",35.15405512855351,126.8088080406056,"01","SKT"
"GA0311","010-2658-9277","0315422869",35.15662722385578,126.812019968135,"01","SKT"
"GA0309","010-3608-0096","0332955217",35.15188054570093,126.80848827886854,"01","SKT"
"GA0306","010-3043-6470","0318847879",35.15717759375624,126.80663640035134,"01","SKT"
"GA0295","010-2100-0452","0318824251",35.15437529674532,126.80835512351983,"01","SKT"
"GA0313","010-8244-5766","0333275325",35.152383705000986,126.80976016345758,"01","SKT"
"GA0314","010-3623-4133","0330661840",35.153607133499975,126.80822522661106,"01","SKT"
"GA0316","010-4659-5001","0333453659",35.15245992749194,126.80779771037307,"01","KT"
"GA0319","010-6624-7373","0318846521",35.15663638836484,126.80866151830932,"01","KT"
"GA0321","010-3269-3789","0315423939",35.156077244810334,126.81308802100952,"01","LGU+"
"GA0322","010-7795-5627","0337399988",35.157060160312035,126.8122033575145,"01","SKT"
"GA0334","010-3172-6166","0318845130",35.16594778101846,126.80549603960654,"01","KT"
"GA0332","010-9148-0227","0318844417",35.16543619260481,126.80573434874668,"01","LGU+"
"GA0335","010-6620-0064","0318845764",35.16594778101846,126.80549603960654,"01","LGU+"
"GA0337","010-5058-0544","0318837782",35.155783556052036,126.80971273873871,"01","SKT"
"GA0329","010-4937-1962","0333275290",35.152383705000986,126.80976016345758,"01","SKT"
"GA0346","010-8300-7923","0306165949",35.15281401699998,126.80827537649488,"01","LGU+"
"GA0352","010-4172-0821","0338269796",35.15516419477945,126.81020586355936,"01","KT"
"GA0360","010-2286-2908","0318853004",35.165884549769665,126.80653676224219,"01","KT"
"GA0362","010-3256-3835","0318843383",35.16594778101846,126.80549603960654,"01","SKT"
"GA0368","010-3525-2749","0315426017",35.155381912788556,126.81109653514869,"01","SKT"
"GA0376","010-6611-8866","0330905784",35.157060160312035,126.8122033575145,"01","KT"
"GA0375","010-5607-3716","0318838353",35.1544107166234,126.81024273327188,"01","LGU+"
"GA0374","010-8606-7379","0318834044",35.15219001674016,126.81040153444064,"01","LGT"
"GA0380","010-8265-2585","0332955244",35.15188054570093,126.80848827886854,"01","LGU+"
"GA0378","010-9911-2380","0318859311",35.16543619260481,126.80573434874668,"01","KT"
"GA0386","010-2495-0397","0318853488",35.165884549769665,126.80653676224219,"01","SKT"
"GA0390","010-4560-9344","0318835070",35.1531284865413,126.80877947894982,"01","SKT"
"GA0381","010-6790-4815","0318853479",35.165837665358325,126.80652809208159,"01","SKT"
"GA0385","010-7475-3832","0318856751",35.165884549769665,126.80653676224219,"01","SKT"
"GA0391","010-6610-2869","0318853692",35.165884549769665,126.80653676224219,"01","SKT"
"GA0384","010-6633-2519","0318833553",35.153479712187526,126.8097312727071,"01","KT"
"GA0389","010-5601-2671","0315426525",35.15661321458354,126.81462772091567,"01","SKT"
"GA0387","010-2603-0650","0315425866",35.15501036263905,126.81097447354867,"01","KT"
"GA0382","010-3662-6330","0318852960",35.165884549769665,126.80653676224219,"01","SKT"
"GA0393","010-2010-3104","0318846004",35.16594778101846,126.80549603960654,"01","SKT"
"GA0379","010-4876-5297","0318855609",35.165884549769665,126.80653676224219,"01","SKT"
"GA0388","010-7181-0977","0318854879",35.165884549769665,126.80653676224219,"01","KT"
"GA0392","010-3226-2232","0318840563",35.15731677548571,126.81029305706754,"01","LGU+"
"GA0383","010-9433-9942","0318841438",35.15735105782398,126.80916471117249,"01","KT"
"GA0400","010-6674-7754","0315425875",35.155013693978134,126.81079886521097,"01","SKT"
"GA0401","010-9977-2741","0315441562",35.15337606350917,126.81031098447231,"01","SKT"
"GA0399","010-9648-0023","0315424091",35.15532934158954,126.814406741493,"01","LGU+"
"GA0406","010-3618-4011","0318838344",35.1544107166234,126.81024273327188,"01","KT"
"GA0404","010-5503-9438","0315424714",35.15563913879276,126.81423043594693,"01","KT"
"GA0402","010 5158 2589","0318844907",35.16594778101846,126.80549603960654,"01","KT"
"GA0407","010-2670-4799","0318845247",35.16594778101846,126.80549603960654,"01","SKT"
"GA0403","010-3042-9504","0315424411",35.1549647564903,126.81412221858676,"01","KT"
"GA0405","010-5275-3263","0315424457",35.1549647564903,126.81412221858676,"01","SKT"
"GA0409","010-3672-4528","0318852648",35.165884549769665,126.80653676224219,"01","LGU+"
"GA0408","010-3646-4625","0306165850",35.15270988317065,126.8085434041758,"01","LGU+"
"GA0410","010-8285-8273","0337799519",35.15501478081427,126.81382797372747,"01","LGU+"
"GA0411","010-5877-2491","0315441278",35.15337606350917,126.81031098447231,"01","LGU+"
"GA0413","010-3771-9159","0315426124",35.155381912788556,126.81109653514869,"01","KT"
"GA0412","010-3128-9408","0315432983",35.15418428299313,126.81301772089526,"01","LGU+"
"GA0369","010-8690-2959","0318836462",35.154913502814665,126.80898602289524,"01","SKT"
"GA0373","010-6697-1913","0318835631",35.15547087923756,126.80805842164372,"01","SKT"
"GA0377","010-2684-9333","0318825278",35.15902006268403,126.81126812420769,"01","KT"
"GA0414","010-7172-9744","0315423341",35.15614499509382,126.81260056753085,"01","SKT"
"GA0415","010-7997-7855","0315439557",35.15383108701132,126.81310632801821,"01","SKT"
"GA0416","010-2808-9062","0339316305",35.1542680060282,126.81353554650698,"01","SKT"
"GA0417","010-3531-9164","0318840714",35.15778573434465,126.81045440445108,"01","SKT"
"GA0418","010-6666-8113","0318822976",35.153796216262734,126.8092388614278,"01","SKT"
"GA0419","010-9451-1998","0318842598",35.16587144636899,126.8051098486689,"01","SKT"
"GA0420","010-3345-3382","0315421824",35.15505239571572,126.81484637225637,"01","SKT"
"GA0421","010-9335-5234","0331210871",35.15644269235075,126.80929414513915,"01","SKT"