,mbl_phon_num,latitude_nm,longitude_nm,home_lat,home_lon,hh,dt
0,01049509259,37.596516,127.05887,37.597202,127.067410,07,20190730
1,01049509259,37.59937,127.06761,37.597202,127.067410,23,20190730
2,01086436319,37.565964,126.985,37.535106,127.076520,04,20190730
3,01049509259,37.565964,126.985,37.597202,127.067410,16,20190730
4,01049509259,37.56602,126.98576,37.597202,127.067410,08,20190730
5,01086436319,37.53846,127.07594,37.535106,127.076520,21,20190730
6,01049509259,37.565964,126.985,37.597202,127.067410,13,20190730
7,01031368032,37.48187,127.08244,37.481931,127.082148,10,20190730
8,01057556895,37.565964,126.985,37.539102,126.965684,17,20190730
9,01057556895,37.529858,126.967064,37.539102,126.965684,00,20190730
10,01031368032,37.48167,127.08242,37.481931,127.082148,02,20190730
11,01057556895,37.56858,126.98524,37.539102,126.965684,12,20190730
12,01031368032,37.482845,127.07938,37.481931,127.082148,11,20190730
13,01086436319,37.535835,127.07534,37.535106,127.076520,10,20190730
14,01057556895,37.538017,126.96611,37.539102,126.965684,07,20190730
15,01057556895,37.56897,126.98666,37.539102,126.965684,18,20190730
16,01031368032,37.512905,127.056496,37.481931,127.082148,17,20190730
17,01049509259,37.596035,127.06879,37.597202,127.067410,00,20190730
18,01057556895,37.565964,126.985,37.539102,126.965684,08,20190730
19,01031368032,37.482838,127.079544,37.481931,127.082148,14,20190730
20,01031368032,37.482845,127.07938,37.481931,127.082148,00,20190730
21,01049509259,37.567085,126.9894,37.597202,127.067410,11,20190730
22,01086436319,37.53552,127.07556,37.535106,127.076520,09,20190730
23,01031368032,37.49538,127.12299,37.481931,127.082148,15,20190730
24,01031368032,37.482845,127.07938,37.481931,127.082148,01,20190730
25,01049509259,37.567368,126.98647,37.597202,127.067410,12,20190730
26,01086436319,37.53119,127.077,37.535106,127.076520,05,20190730
27,01086436319,37.535522,127.07558,37.535106,127.076520,06,20190730
28,01049509259,37.56893,126.98468,37.597202,127.067410,19,20190730
29,01086436319,37.563515,126.9851,37.535106,127.076520,11,20190730
30,01049509259,37.57007,126.98336,37.597202,127.067410,22,20190730
31,01031368032,37.483368,127.08574,37.481931,127.082148,18,20190730
32,01057556895,37.565964,126.985,37.539102,126.965684,13,20190730
33,01057556895,37.538033,126.9631,37.539102,126.965684,23,20190730
34,01086436319,37.5665,126.98486,37.535106,127.076520,01,20190730
35,01057556895,37.565964,126.985,37.539102,126.965684,11,20190730
36,01086436319,37.539154,127.0724,37.535106,127.076520,20,20190730
37,01031368032,37.508537,127.05983,37.481931,127.082148,16,20190730
38,01086436319,37.566315,126.98508,37.535106,127.076520,13,20190730
39,01057556895,37.532703,127.00734,37.539102,126.965684,19,20190731
40,01057556895,37.565964,126.985,37.539102,126.965684,08,20190731
41,01057556895,37.53829,126.965836,37.539102,126.965684,21,20190731
42,01031368032,37.482845,127.07938,37.481931,127.082148,22,20190731
43,01057556895,37.540802,127.001724,37.539102,126.965684,20,20190731
44,01057556895,37.565853,127.01671,37.539102,126.965684,18,20190731
45,01049509259,37.5661,126.98575,37.597202,127.067410,12,20190731
46,01049509259,37.567005,126.9855,37.597202,127.067410,10,20190731
47,01031368032,37.48167,127.08243,37.481931,127.082148,17,20190731
48,01031368032,37.482845,127.07938,37.481931,127.082148,18,20190731
49,01057556895,37.54035,126.9663,37.539102,126.965684,01,20190731
50,01057556895,37.52984,126.966896,37.539102,126.965684,02,20190731
51,01031368032,37.482845,127.07938,37.481931,127.082148,00,20190731
52,01086436319,37.53552,127.07556,37.535106,127.076520,07,20190731
53,01086436319,37.53552,127.07556,37.535106,127.076520,04,20190731
54,01049509259,37.875248,127.71216,37.597202,127.067410,22,20190731
55,01031368032,37.482845,127.07938,37.481931,127.082148,01,20190731
56,01049509259,37.59592,127.068985,37.597202,127.067410,00,20190731
57,01049509259,37.56731,126.98442,37.597202,127.067410,15,20190731
58,01086436319,37.53552,127.07556,37.535106,127.076520,09,20190731
59,01057556895,37.567177,126.985435,37.539102,126.965684,11,20190731
60,01057556895,37.565964,126.985,37.539102,126.965684,12,20190731
61,01049509259,37.56041,127.0385,37.597202,127.067410,17,20190731
62,01049509259,37.56702,126.98301,37.597202,127.067410,11,20190731
63,01057556895,37.538017,126.96611,37.539102,126.965684,07,20190731
64,01086436319,37.5661,126.984474,37.535106,127.076520,10,20190731
65,01086436319,37.56605,126.98588,37.535106,127.076520,12,20190731
66,01057556895,37.529858,126.967064,37.539102,126.965684,00,20190731
67,01049509259,37.771896,127.4559,37.597202,127.067410,18,20190731
68,01057556895,37.539993,126.968956,37.539102,126.965684,22,20190731
69,01086436319,37.531174,127.07701,37.535106,127.076520,08,20190731
70,01086436319,37.567177,126.985435,37.535106,127.076520,11,20190731
71,01049509259,37.864983,127.72211,37.597202,127.067410,19,20190731
72,01031368032,37.497032,127.06135,37.481931,127.082148,20,20190731
73,01049509259,37.599457,127.06759,37.597202,127.067410,09,20190731
74,01031368032,37.46281,127.036674,37.481931,127.082148,21,20190731
75,01049509259,37.93051,127.78577,37.597202,127.067410,20,20190731
76,01086436319,37.531174,127.07701,37.535106,127.076520,06,20190731
77,01086436319,37.53552,127.07556,37.535106,127.076520,01,20190731
78,01049509259,37.92469,127.778404,37.597202,127.067410,21,20190731
79,01049509259,37.86936,127.7183,37.597202,127.067410,23,20190731
