,mbl_phon_num,sms_send_cnt,call_send_cnt,total_traffic,hh,dt
0,01031368032,0.0,0.0,3.0517577e-07,03,20190730
1,01031368032,0.0,0.0,3.0517577e-07,07,20190730
2,01031368032,0.0,0.0,4.816055e-07,13,20190730
3,01031368032,0.0,0.0,8.573532e-07,14,20190730
4,01031368032,0.0,0.0,9.059906e-07,01,20190730
5,01031368032,0.0,0.0,1.7261505e-06,00,20190730
6,01031368032,0.0,0.0,2.0914079e-06,04,20190730
7,01031368032,0.0,0.0,2.0914079e-06,06,20190730
8,01031368032,0.0,0.0,2.884865e-06,12,20190730
9,01031368032,0.0,0.0,3.528595e-06,20,20190730
10,01031368032,0.0,0.0,3.566742e-06,11,20190730
11,01031368032,0.0,0.0,4.6052933e-06,02,20190730
12,01031368032,0.0,0.0,1.09176635e-05,23,20190730
13,01031368032,0.0,0.0,1.3390541e-05,09,20190730
14,01031368032,0.0,0.0,2.4751664e-05,08,20190730
15,01031368032,0.0,0.0,3.1664847e-05,10,20190730
16,01031368032,0.0,0.0,3.433037e-05,05,20190730
17,01031368032,0.0,0.0,0.00038580608,22,20190730
18,01031368032,0.0,0.0,0.0038265237,15,20190730
19,01031368032,0.0,0.0,0.004100807,16,20190730
20,01031368032,0.0,0.0,0.0069482545,18,20190730
21,01031368032,0.0,0.0,0.0072736503,21,20190730
22,01031368032,0.0,1.0,0.001365468,17,20190730
23,01031368032,0.0,4.0,0.0007123184,19,20190730
24,01049509259,0.0,0.0,0.0014358836,19,20190730
25,01049509259,0.0,1.0,4.3351174e-05,13,20190730
26,01049509259,0.0,1.0,0.00035596752,18,20190730
27,01049509259,0.0,1.0,0.00047332476,14,20190730
28,01057556895,0.0,0.0,0.00028641033,22,20190730
29,01057556895,0.0,0.0,0.00030949403,05,20190730
30,01057556895,0.0,0.0,0.00031651784,01,20190730
31,01057556895,0.0,0.0,0.00034805012,03,20190730
32,01057556895,0.0,0.0,0.00036406613,00,20190730
33,01057556895,0.0,0.0,0.00040328695,04,20190730
34,01057556895,0.0,0.0,0.0004253273,06,20190730
35,01057556895,0.0,0.0,0.0004289036,19,20190730
36,01057556895,0.0,0.0,0.00069375994,20,20190730
37,01057556895,0.0,0.0,0.0008174572,02,20190730
38,01057556895,0.0,0.0,0.0015239458,15,20190730
39,01057556895,0.0,0.0,0.0026434432,12,20190730
40,01057556895,0.0,0.0,0.0036934977,17,20190730
41,01057556895,0.0,0.0,0.0051849163,11,20190730
42,01057556895,0.0,0.0,0.006844618,13,20190730
43,01057556895,0.0,0.0,0.0076141185,23,20190730
44,01057556895,0.0,0.0,0.00764955,14,20190730
45,01057556895,0.0,0.0,0.010995673,21,20190730
46,01057556895,0.0,0.0,0.019750105,16,20190730
47,01057556895,0.0,0.0,0.020103002,10,20190730
48,01057556895,0.0,0.0,0.02526112,08,20190730
49,01057556895,0.0,0.0,0.026487757,09,20190730
50,01057556895,0.0,0.0,0.040791813,07,20190730
51,01057556895,0.0,1.0,0.0193982,18,20190730
52,01086436319,0.0,0.0,9.254456e-06,02,20190730
53,01086436319,0.0,0.0,1.7960549e-05,00,20190730
54,01086436319,0.0,0.0,1.8230437e-05,15,20190730
55,01086436319,0.0,0.0,1.9910813e-05,01,20190730
56,01086436319,0.0,0.0,2.30999e-05,03,20190730
57,01086436319,0.0,0.0,4.767227e-05,16,20190730
58,01086436319,0.0,0.0,5.0729752e-05,19,20190730
59,01086436319,0.0,0.0,5.8870315e-05,18,20190730
60,01086436319,0.0,0.0,6.924629e-05,17,20190730
61,01086436319,0.0,0.0,0.0003607254,06,20190730
62,01086436319,0.0,0.0,0.0005031576,14,20190730
63,01086436319,0.0,0.0,0.00071503257,07,20190730
64,01086436319,0.0,0.0,0.0009125023,05,20190730
65,01086436319,0.0,0.0,0.0017020473,21,20190730
66,01086436319,0.0,0.0,0.0026408052,08,20190730
67,01086436319,0.0,0.0,0.008355175,11,20190730
68,01086436319,0.0,0.0,0.0095056025,10,20190730
69,01086436319,0.0,0.0,0.011394943,04,20190730
70,01086436319,0.0,0.0,0.01882189,13,20190730
71,01086436319,0.0,0.0,0.035626043,23,20190730
72,01086436319,0.0,0.0,0.04923406,12,20190730
73,01086436319,0.0,1.0,0.0011929283,09,20190730
74,01086436319,0.0,1.0,0.037997693,22,20190730
75,01086436319,0.0,1.0,0.05806603,20,20190730
76,01031368032,0.0,0.0,3.0517577e-07,02,20190731
77,01031368032,0.0,0.0,6.694794e-07,04,20190731
78,01031368032,0.0,0.0,6.694794e-07,05,20190731
79,01031368032,0.0,0.0,1.9054413e-06,06,20190731
80,01031368032,0.0,0.0,3.993034e-06,07,20190731
81,01031368032,0.0,0.0,4.910469e-06,23,20190731
82,01031368032,0.0,0.0,5.831718e-06,03,20190731
83,01031368032,0.0,0.0,6.2198637e-06,11,20190731
84,01031368032,0.0,0.0,6.7214964e-06,09,20190731
85,01031368032,0.0,0.0,7.84111e-06,19,20190731
86,01031368032,0.0,0.0,8.189201e-06,18,20190731
87,01031368032,0.0,0.0,8.598327e-06,17,20190731
88,01031368032,0.0,0.0,1.1482239e-05,01,20190731
89,01031368032,0.0,0.0,1.6672135e-05,12,20190731
90,01031368032,0.0,0.0,1.6819953e-05,13,20190731
91,01031368032,0.0,0.0,1.861e-05,16,20190731
92,01031368032,0.0,0.0,2.1277428e-05,10,20190731
93,01031368032,0.0,0.0,2.5932311e-05,08,20190731
94,01031368032,0.0,0.0,3.8700106e-05,15,20190731
95,01031368032,0.0,0.0,9.922123e-05,00,20190731
96,01031368032,0.0,0.0,0.001997077,21,20190731
97,01031368032,0.0,1.0,0.0005549164,14,20190731
98,01031368032,0.0,1.0,0.0023082923,22,20190731
99,01031368032,0.0,1.0,0.014663272,20,20190731
100,01049509259,0.0,0.0,0.016034698,22,20190731
101,01049509259,0.0,0.0,0.016923001,20,20190731
102,01049509259,0.0,0.0,0.045636225,21,20190731
103,01049509259,0.0,0.0,0.056439977,23,20190731
104,01049509259,0.0,0.0,0.060300913,18,20190731
105,01049509259,0.0,0.0,0.07400171,17,20190731
106,01049509259,0.0,1.0,0.00082149316,15,20190731
107,01049509259,0.0,1.0,0.009270484,16,20190731
108,01049509259,0.0,1.0,0.07316075,19,20190731
109,01057556895,0.0,0.0,0.0006107483,02,20190731
110,01057556895,0.0,0.0,0.0006558504,05,20190731
111,01057556895,0.0,0.0,0.00083553506,06,20190731
112,01057556895,0.0,0.0,0.0010484038,04,20190731
113,01057556895,0.0,0.0,0.001200511,07,20190731
114,01057556895,0.0,0.0,0.0014301662,01,20190731
115,01057556895,0.0,0.0,0.002137537,03,20190731
116,01057556895,0.0,0.0,0.0049531916,10,20190731
117,01057556895,0.0,0.0,0.008886683,21,20190731
118,01057556895,0.0,0.0,0.010943385,17,20190731
119,01057556895,0.0,0.0,0.011350871,12,20190731
120,01057556895,0.0,0.0,0.011881959,13,20190731
121,01057556895,0.0,0.0,0.012046011,09,20190731
122,01057556895,0.0,0.0,0.013470945,14,20190731
123,01057556895,0.0,0.0,0.01722481,16,20190731
124,01057556895,0.0,0.0,0.018026832,11,20190731
125,01057556895,0.0,0.0,0.026730463,20,20190731
126,01057556895,0.0,0.0,0.031730283,08,20190731
127,01057556895,0.0,0.0,0.034379907,18,20190731
128,01057556895,0.0,0.0,0.034848563,23,20190731
129,01057556895,0.0,1.0,0.02218691,15,20190731
130,01057556895,0.0,1.0,0.027291495,00,20190731
131,01057556895,0.0,1.0,0.028709356,19,20190731
132,01057556895,0.0,2.0,0.03577397,22,20190731
133,01086436319,0.0,0.0,1.471138e-05,23,20190731
134,01086436319,0.0,0.0,2.6443482e-05,20,20190731
135,01086436319,0.0,0.0,3.4736633e-05,22,20190731
136,01086436319,0.0,0.0,4.2847634e-05,16,20190731
137,01086436319,0.0,0.0,4.3666838e-05,21,20190731
138,01086436319,0.0,0.0,5.655384e-05,18,20190731
139,01086436319,0.0,0.0,7.6000215e-05,06,20190731
140,01086436319,0.0,0.0,7.813263e-05,05,20190731
141,01086436319,0.0,0.0,8.964729e-05,02,20190731
142,01086436319,0.0,0.0,0.0001255865,04,20190731
143,01086436319,0.0,0.0,0.00015719605,03,20190731
144,01086436319,0.0,0.0,0.00018700027,17,20190731
145,01086436319,0.0,0.0,0.0005669289,11,20190731
146,01086436319,0.0,0.0,0.0015204926,07,20190731
147,01086436319,0.0,0.0,0.0028373003,14,20190731
148,01086436319,0.0,0.0,0.0033498898,13,20190731
149,01086436319,0.0,0.0,0.008993613,15,20190731
150,01086436319,0.0,0.0,0.011941039,19,20190731
151,01086436319,0.0,0.0,0.01596316,00,20190731
152,01086436319,0.0,0.0,0.022600133,08,20190731
153,01086436319,0.0,0.0,0.032660082,12,20190731
154,01086436319,0.0,1.0,0.0052777366,10,20190731
155,01086436319,0.0,1.0,0.0121894395,01,20190731
156,01086436319,0.0,1.0,0.041368984,09,20190731
